%YAML 1.1
%TAG !u! tag:unity3d.com,2011:
--- !u!1045 &1
EditorBuildSettings:
  m_ObjectHideFlags: 0
  serializedVersion: 2
  m_Scenes: 
  - enabled: 1
    path: Assets/Scenes/Game.unity
    guid: 2d49e6ce5d05add4aae34a62a7a1412e
  - enabled: 1
    path: Assets/Scenes/Stage2.unity
    guid: f4c6248bb2be66742b1f14a5a734897e
  m_configObjects: {}
